Create a Data Backend — as_data_backend • mlr3
…
        Toggle navigation

        mlr3
        0.1.4.9000

  Reference

  Changelog

    Create a Data Backend

    Source: R/as_data_backend.R
    as_data_backend.Rd

    Wraps a DataBackend around data.

as_data_backend(data, ...)

    Arguments

      data
      :: any

Data to create a DataBackend for.
For a data.frame() (this includes tibble() from tibble and data.table::data.table())
this function creates a DataBackendDataTable.
See methods("as_data_backend") for possible input formats.
Note that third-party packages may extend this functionality.

      ...
      :: any

Additional arguments passed to the respective DataBackend method.

    Value

    DataBackend.

    See also

    Other DataBackend: 
DataBackendDataTable,
DataBackendMatrix,
DataBackend

    Examples

# create a new backend using the iris data:
as_data_backend(iris)
#> <DataBackendDataTable> (150x6)
#>  Sepal.Length Sepal.Width Petal.Length Petal.Width Species ..row_id
#>           5.1         3.5          1.4         0.2  setosa        1
#>           4.9         3.0          1.4         0.2  setosa        2
#>           4.7         3.2          1.3         0.2  setosa        3
#>           4.6         3.1          1.5         0.2  setosa        4
#>           5.0         3.6          1.4         0.2  setosa        5
#>           5.4         3.9          1.7         0.4  setosa        6
#> [...] (144 rows omitted)
…
